
Tracker partiton table
mmcblk0: p1 p2 p3 p4 < p5 p6 p7 p8 >

1 sector = 512 byte
+--------+--------------------+--------------------+-------------------+----------------+
| name   | sector/bytes start | sector/bytes end   | sector/bytes size |  type          |
+--------+--------------------+--------------------+-------------------+----------------+
| MBR    | 0/0                | 1/511              | 1/512             | N/A            |
+--------+--------------------+--------------------+-------------------+----------------+
| reserv | 1/512              | 2/1023             | 1/512             | N/A            |
+--------+--------------------+--------------------+-------------------+----------------+
| SPL    | 2/1024             | 138/70655          | 136/69632         | N/A            |
+--------+--------------------+--------------------+-------------------+----------------+
| UBoot  | 138/70656          | 2186/1119231       | 2048/1048576      | N/A            |
+--------+--------------------+--------------------+-------------------+----------------+
| CFG    | 2186/1119232       | 4233/2167807       | 2048/1048576      | Linux PRIMARY  |
+--------+--------------------+--------------------+-------------------+----------------+
| kernel1| 4234/2167808       | 24713/12653567     | 20480/10485760    | Linux PRIMARY  |
+--------+--------------------+--------------------+-------------------+----------------+
| kernel2| 24714/12653568     | 45193/23139327     | 20480/10485760    | Linux PRIMARY  |
+--------+--------------------+--------------------+-------------------+----------------+
|        | 45194/23139328     | end                | -                 | EXTENDED       |
+--------+--------------------+--------------------+-------------------+----------------+



EXTENDED TABLE:

+--------+--------------------+--------------------+-------------------+----------------+
| name   | sector/bytes start | sector/bytes end   | sector/bytes size |                |
+--------+--------------------+--------------------+-------------------+----------------+
| root1  | 45195/23139840     | 1069194/547427328  | 1024000/500mb     | Linux          |
+--------+--------------------+--------------------+-------------------+----------------+
| root2  | 1069196/547428352  | 2093195/1071715840 | 1024000/500mb     | Linux          |
+--------+--------------------+--------------------+-------------------+----------------+
| userid | 2093197/1071716864 | 2113676/1082202112 | 20480/10mb        | Linux          |
+--------+--------------------+--------------------+-------------------+----------------+
| userdt | 2113678/1082203136 | end                | -                 | Linux          |
+--------+--------------------+--------------------+-------------------+----------------+



MOUNT TABLE:

+-----------------+------------------+------------------+
| type            | name             | path             |
+-----------------+------------------+------------------+
| Linux PRIMARY   | CFG              | N/A              |
+-----------------+------------------+------------------+
| Linux PRIMARY   | kernel1          | N/A              |
+-----------------+------------------+------------------+
| Linux PRIMARY   | kernel2          | N/A              |
+-----------------+------------------+------------------+
| EXTENDED        | root1            | /                |
+-----------------+------------------+------------------+
| EXTENDED        | root2            | /                |
+-----------------+------------------+------------------+
| EXTENDED        | userid           | /data/cfg        |  (не ясно получится или нет)
+-----------------+------------------+------------------+
| EXTENDED        | userdt           | /data            |
+-----------------+------------------+------------------+

  
  
  
  
  
  
  
  